{"identifier":"20160106_17c9c13f05b4e3c10a6d02bbc4233983",
"revisionDate":"null",
"source_sentences":[
  {"text":"La ministre de la Culture Fleur Pellerin à la sortie du Conseil des ministres le 4 janvier 2016 à Paris (AFP/LIONEL BONAVENTURE)",
   "sources":[
{"start":225, "end":265, "type":"SOURCE-PRIM", "text":"La ministre de la Culture Fleur Pellerin", "value":"LIONEL BONAVENTURE", "indexed_value":"LIONEL BONAVENTURE"}   ]}
,  {"text":"Aucun des textes, cités ces derniers jours, n'interdit de produire des apatrides: que ce soit la déclaration universelle des Droits de l'Homme de 1948, que ce soit les deux conventions de l'ONU qui définissent le statut des apatrides ou visent à réduire le nombre de cas d'apatridie\", a-t-elle affirmé sur France Info.",
   "sources":[
{"start":755, "end":759, "type":"SOURCE-PRIM", "text":"elle", "value":"LIONEL BONAVENTURE", "indexed_value":"LIONEL BONAVENTURE"}   ]}
,  {"text":"Elle a martelé qu'aucun de ces textes \"n'empêche de produire des apatrides\" et que si la convention de 1954 prévoit le statut des apatrides, c'est que \"cette situation est possible donc le débat n'est pas juridique\".",
   "sources":[
{"start":785, "end":789, "type":"SOURCE-PRIM", "text":"Elle", "value":"LIONEL BONAVENTURE", "indexed_value":"LIONEL BONAVENTURE"}   ]}
,  {"text":", a-t-elle interrogé.",
   "sources":[
{"start":1377, "end":1381, "type":"SOURCE-PRIM", "text":"elle", "value":"LIONEL BONAVENTURE", "indexed_value":"LIONEL BONAVENTURE"}   ]}
,  {"text":"Le chef de l'Etat avait annoncé le 16 novembre devant le Congrès son intention de graver dans la constitution la déchéance de nationalité pour les binationaux reconnus coupables d'actes de terrorisme.",
   "sources":[
{"start":1393, "end":1410, "type":"SOURCE-PRIM", "text":"Le chef de l'Etat", "value":"Le chef de l'Etat", "indexed_value":"Le chef de l'Etat"}   ]}
]}
